…
The table contains aggregated fielding statistics by year. Let’s see if
there are any players that have multiple positions in the data:

``` r
fielding %>% 
  group_by(playerID) %>% 
  summarize(positions = n_distinct(POS)) %>% 
  filter(positions > 1)
```

    ## # A tibble: 6,689 x 2
    ##    playerID  positions
    ##    <chr>         <int>
    ##  1 aaronha01         4
    ##  2 aaronto01         4
    ##  3 abadan01          2
    ##  4 abbated01         4
    ##  5 abbeych01         2
    ##  6 abbotfr01         2
    ##  7 abbotku01         5
    ##  8 abernbr01         2
    ##  9 abramca01         2
    ## 10 abreujo01         2
    ## # ... with 6,679 more rows
…
